[
    {
        "username": "walt2",
        "roles": {
            "Admin": 5150
        },
        "password": "$2b$10$cvfmz./teMWDccIMChAxZ.HqgL3eoQGYTm1z9lGy5iRf8D7NNargC",
        "refreshToken": "eyJhbGciOiJIUzI1NiIsInR5cCI6IkpXVCJ9.eyJ1c2VybmFtZSI6IndhbHQyIiwiaWF0IjoxNjMzMzY5NTY0LCJleHAiOjE2MzM0NTU5NjR9.9dwX-2wb6V9CtIWrg5xnguFhRTejpB029ikgPHjxnxU"
    },
    {
        "username": "walt1",
        "roles": {
            "User": 2001,
            "Editor": 1984
        },
        "password": "$2b$10$33Q9jtAoaXC4aUX9Bjihxum2BHG.ENB6JyoCvPjnuXpITtUd8x8/y",
        "refreshToken": "eyJhbGciOiJIUzI1NiIsInR5cCI6IkpXVCJ9.eyJ1c2VybmFtZSI6IndhbHQxIiwiaWF0IjoxNjMzMzg5NDAyLCJleHAiOjE2MzM0NzU4MDJ9.GvkCtOJsmvAKNDBCiH7jXr4FPE4wmFynuDS4QpDnCQY"
    }
]